user_interface.c:61:13:UI_Init	0	static
user_interface.c:76:13:UI_SelectMC	0	static
user_interface.c:95:16:UI_GetSelectedMC	0	static
user_interface.c:107:17:UI_GetSelectedMCConfig	0	static
user_interface.c:120:13:UI_SetReg	24	static
user_interface.c:366:16:UI_GetReg	96	static
user_interface.c:1109:13:UI_ExecCmd	16	static
user_interface.c:1202:13:UI_ExecSpeedRamp	16	static
user_interface.c:1219:13:UI_ExecTorqueRamp	8	static
user_interface.c:1245:13:UI_GetRevupData	24	static
user_interface.c:1276:13:UI_SetRevupData	24	static
user_interface.c:1297:13:UI_SetCurrentReferences	16	static
user_interface.c:1316:13:UI_GetMPInfo	0	static
